<svg xmlns="http://www.w3.org/2000/svg" viewBox="0 0 126 42">
  <title>Betsmania</title>
  <g fill="none" fill-rule="evenodd">
    <path fill="#ffffff" fill-rule="nonzero" d="M5.0468755 41c.796875 0 1.48046875-.03125 2.05078125-.09375s1.08984375-.171875 1.55859375-.328125c.609375-.203125 1.11914062-.4648438 1.52929688-.7851562.41015624-.3203126.7421875-.6699219.99609372-1.0488282.2539063-.3789062.4355469-.7695312.5449219-1.171875.109375-.4023437.1640625-.7871094.1640625-1.1542968 0-.515625-.0742187-.9746094-.2226563-1.3769532-.1484374-.4023437-.3613281-.75-.6386718-1.0429687-.27734378-.2929688-.60937502-.5332031-.99609378-.7207031-.38671874-.1875-.82226562-.3164063-1.30664062-.3867188v-.046875c.453125-.15625.83789062-.3515625 1.15429688-.5859375.31640624-.234375.57421874-.5.7734375-.796875.19921874-.296875.34375002-.6210937.43359372-.9726563.0898438-.3515624.1347657-.71875.1347657-1.1015624 0-.4765626-.0761719-.9179688-.2285157-1.3242188-.15234372-.40625-.3691406-.7695312-.6503906-1.0898438-.28125-.3203124-.62304688-.5957031-1.02539062-.8261718-.40234376-.2304688-.84960938-.4121094-1.34179688-.5449219-.1875-.046875-.38671875-.0878906-.59765625-.1230469-.2109375-.0351562-.43945313-.0644531-.68554688-.0878906-.24609375-.0234375-.51562499-.0410156-.80859375-.0527344-.29296874-.0117187-.61914062-.0175781-.97851562-.0175781H.992188V41h4.0546875zm.76171875-8.8945312h-2.90625v-5.0625H5.0468755c.53125 0 .9921875.0175781 1.3828125.0527343.390625.0351563.734375.0957031 1.03125.1816407.6015625.1796874 1.04296875.453125 1.32421875.8203124.28125.3671876.421875.8398438.421875 1.4179688 0 .5625-.13476563 1.0507812-.40429687 1.4648438-.26953126.4140624-.69726563.71875-1.28320313.9140624-.21875.0703126-.46484375.1230469-.73828125.1582032-.2734375.0351562-.59765625.0527344-.97265625.0527344zm-.59765625 7.171875H2.90234425V33.828125H5.8906255c.4453125 0 .81835938.0117188 1.11914062.0351562.30078126.0234376.56835938.0625.80273438.1171876.390625.0859374.71679688.2070312.97851562.3632812.26171876.15625.47265626.3378906.6328125.5449219.16015626.2070312.27539063.4414062.34570313.703125.0703125.2617187.10546875.5410156.10546875.8378906 0 .2578125-.03320312.5117187-.09960938.7617187-.06640624.25-.17578124.4863282-.328125.7089844-.15234374.2226563-.35351562.4257813-.60351562.609375-.25.1835938-.5546875.3339844-.9140625.4511719-.328125.109375-.7265625.1894531-1.1953125.2402344-.46875.0507812-.9765625.0761719-1.5234375.0761719zM25.179688 41v-1.7226562h-8.0390625V33.828125h6.7617187v-1.7226562h-6.7617187v-5.0625h7.6054687v-1.7226563h-9.515625V41h9.9492188zm8.90625 0V27.0429688h5.2382812v-1.7226563H26.9375005v1.7226563h5.2382813V41h1.9101562zm11.4609375.2929688c.8828125 0 1.6953125-.0917969 2.4375-.2753907.7421875-.1835937 1.3808594-.4648437 1.9160156-.84375.5351563-.3789062.953125-.8632812 1.2539063-1.453125.3007812-.5898437.4511718-1.2910156.4511718-2.1035156 0-.796875-.1425781-1.4492187-.4277343-1.9570313-.2851563-.5078124-.6582031-.9199218-1.1191407-1.2363281-.4609374-.3164062-.9863281-.5644531-1.5761718-.7441406-.5898438-.1796875-1.1894532-.34375-1.7988282-.4921875-.453125-.109375-.8886718-.2265625-1.3066406-.3515625-.4179687-.125-.7851562-.2851563-1.1015625-.4804687-.3164062-.1953126-.5683593-.4433594-.7558593-.7441407-.1875-.3007812-.28125-.6816406-.28125-1.1425781 0-.4140625.0703124-.7910156.2109374-1.1308594.140625-.3398437.3554688-.6289062.6445313-.8671875.2890625-.2382812.6523437-.421875 1.0898437-.5507812.4375-.1289063.953125-.1933594 1.546875-.1933594.7890626.0078125 1.5292969.0976563 2.2207032.2695313.6914062.171875 1.3613281.3945312 2.0097656.6679687v-1.7695313c-.6015625-.2578124-1.2636719-.4667968-1.9863281-.6269531-.7226563-.1601562-1.5019531-.2402343-2.3378907-.2402343-.734375 0-1.4257812.0898437-2.0742187.2695312-.6484375.1796875-1.2148437.4570312-1.6992187.8320312-.484375.375-.8671876.8496094-1.1484376 1.4238282-.28125.5742187-.421875 1.2597656-.421875 2.0566406 0 .765625.1386719 1.3945312.4160157 1.8867188.2773437.4921874.6445312.8945312 1.1015625 1.2070312.4570312.3125.9765625.5566406 1.5585937.7324219.5820313.1757812 1.1777344.3339843 1.7871094.4746093.4609375.109375.9003906.2265626 1.3183594.3515626.4179687.125.7871093.2871093 1.1074219.4863281.3203124.1992187.5761718.4511719.7675781.7558593.1914062.3046876.2871093.6914063.2871093 1.1601563 0 .5703125-.109375 1.0449219-.328125 1.4238281-.21875.3789063-.515625.6777344-.890625.8964844s-.8105468.375-1.3066406.46875c-.4960937.09375-1.0175781.140625-1.5644531.140625-.3359375 0-.6953125-.0234375-1.078125-.0703125s-.7617187-.1113281-1.1367187-.1933594c-.375-.0820312-.7382813-.1816406-1.0898438-.2988281-.3515625-.1171875-.6679688-.2460938-.9492188-.3867188v1.7460938c.1796876.109375.4257813.21875.7382813.328125.3125.109375.6621094.2070312 1.0488281.2929688.3867188.0859374.7929688.1542968 1.21875.2050781.4257813.0507812.8417969.0761719 1.2480469.0761719zM56.9375005 41v-7.5820312c0-1.8125-.0546875-3.8085938-.1640625-5.9882813h.09375c.546875 1.515625 1.09375 2.9179687 1.640625 4.2070313L62.4570318 41h.8789062l3.9492188-9.3632812c.515625-1.203125 1.0625-2.6054688 1.640625-4.2070313h.09375c-.109375 2.21875-.1640626 4.2148437-.1640626 5.9882813V41h1.9101563V25.3203125h-2.7539063l-3.6914062 8.8710937c-.3671875.859375-.8320312 2.0820313-1.3945312 3.6679688h-.0585938c-.5078125-1.4296875-.9726562-2.6523438-1.3945312-3.6679688l-3.6914063-8.8710937h-2.7539063V41h1.9101563zm18.28125 0l1.875-4.7226562h6.5507813L85.5195318 41h2.0742187l-6.3867187-15.6796875H79.554688L73.1679692 41h2.0507813zm7.7460937-6.4453125H77.773438l.5859375-1.4765625c.640625-1.59375 1.3085937-3.3671875 2.0039063-5.3203125h.046875c.671875 1.921875 1.328125 3.6953125 1.96875 5.3203125l.5859374 1.4765625zM91.9062505 41v-8.0039062c0-1.90625-.0507813-3.5742188-.1523437-5.0039063h.0703124c.8359376 1.3203125 1.7851563 2.7421875 2.8476563 4.265625L100.8242192 41h1.8984378V25.3203125h-1.9101565v8.34375c0 1.5859375.0507813 3.140625.1523437 4.6640625h-.0703124c-.9375-1.4609375-1.8867188-2.8828125-2.8476563-4.265625l-6.1523437-8.7421875h-1.8984376V41h1.9101563zm16.7109375 0V25.3203125h-1.910156V41h1.910156zm4.453125 0l1.875-4.7226562h6.550781L123.371094 41h2.074219l-6.386719-15.6796875h-1.652344L111.019532 41h2.050781zm7.746094-6.4453125H115.625l.585938-1.4765625c.640625-1.59375 1.308594-3.3671875 2.003906-5.3203125h.046875c.671875 1.921875 1.328125 3.6953125 1.96875 5.3203125l.585938 1.4765625z"/>
    <path fill="#f5d000" d="M67.5000005 15c.8284271 0 1.5.6715729 1.5 1.5s-.6715729 1.5-1.5 1.5h-11c-.8284271 0-1.5-.6715729-1.5-1.5s.6715729-1.5 1.5-1.5h11zm3.5-15c1.1045695 0 2 .8954305 2 2s-.8954305 2-2 2c-.1123529 0-.222542-.00926434-.3298451-.02707077l-1.5305527 9.15628857c-.0805675.4819688-.4976579.8351243-.9863143.8351243H55.8467126c-.4886564 0-.9057468-.3531555-.9863143-.8351243l-1.5305527-9.15628857C53.2225425 3.99073566 53.1123534 4 53.0000005 4c-1.1045695 0-2-.8954305-2-2s.8954305-2 2-2 2 .8954305 2 2c0 .63197221-.2931175 1.19548315-.7508169 1.56199724L59.0000005 9.5l2.2570502-5.64254109C60.5203607 3.56252943 60.0000005 2.84203303 60.0000005 2c0-1.1045695.8954305-2 2-2s2 .8954305 2 2c0 .84203303-.5203602 1.56252943-1.2570502 1.85745891L65.0000005 9.5l4.7508169-5.93800276C69.293118 3.19548315 69.0000005 2.63197221 69.0000005 2c0-1.1045695.8954305-2 2-2z"/>
  </g>
</svg>
